{
  "data": [
    {
      "id": "9fb085fa-a3e3-451b-8404-1942a3d0d303",
      "collection_id": "89508090-51d1-4c5c-a8dd-d423d197ffb3",
      "project_id": 7534,
      "app_user_id": null,
      "created_by": 101682,
      "created_at": "2026-03-30T17:28:46.477Z",
      "updated_at": "2026-04-14T14:36:55.283Z",
      "deleted_at": null,
      "data": {
        "email": "dawn.summers@sunnydale.com",
        "last_name": "Summers",
        "first_name": "Dawn"
      }
    }
  ],
  "meta": {
    "page": 2,
    "limit": 10,
    "total": 11,
    "pages": 2
  }
}
